module contact-parser

go 1.15

require (
	github.com/labstack/echo v3.3.10+incompatible
	github.com/labstack/gommon v0.3.0 // indirect
	github.com/sirupsen/logrus v1.8.1
	github.com/spf13/viper v1.7.1
)
